<svg xmlns="http://www.w3.org/2000/svg" width="14.73" height="8.939" viewBox="0 0 14.73 8.939">
  <path id="Icon_awesome-chevron-up" data-name="Icon awesome-chevron-up" d="M8.335,8.92l6.556,6.556a.81.81,0,0,1,0,1.145l-.765.765a.81.81,0,0,1-1.144,0l-5.22-5.2-5.22,5.2a.81.81,0,0,1-1.144,0l-.765-.765a.81.81,0,0,1,0-1.145L7.191,8.92A.81.81,0,0,1,8.335,8.92Z" transform="translate(-0.398 -8.683)" fill="#fff"/>
</svg>
